<?xml version="1.0" encoding="utf-8"?>
<!DOCTYPE svg PUBLIC "-//W3C//DTD SVG 1.1//EN" "http://www.w3.org/Graphics/SVG/1.1/DTD/svg11.dtd">
<svg id="valign-symbolic" width="24" height="24"
	xmlns="http://www.w3.org/2000/svg" xml:space="preserve" version="1.1">
	<path opacity="0.75" fill="#BEBEBE" d="M5.5,11h-3C2.225,11,2,11.225,2,11.5S2.225,12,2.5,12h3V11z"/>
	<path opacity="0.75" fill="#BEBEBE" d="M9.5,12h12c0.275,0,0.5-0.225,0.5-0.5S21.775,11,21.5,11h-12V12z"/>
	<path opacity="0.35" d="M11,18.5v-12C11,6.225,10.775,6,10.5,6h-4C6.225,6,6,6.225,6,6.5v12C6,18.775,6.225,19,6.5,19h4C10.775,19,11,18.775,11,18.5z M10,7v11H7V7H10z"/>
	<path opacity="0.35" d="M20,15.5v-6C20,9.225,19.775,9,19.5,9h-4C15.225,9,15,9.225,15,9.5v6c0,0.275,0.225,0.5,0.5,0.5h4C19.775,16,20,15.775,20,15.5z"/>
	<path fill="#BEBEBE" d="M10,17.5v-12C10,5.225,9.775,5,9.5,5h-4C5.225,5,5,5.225,5,5.5v12C5,17.775,5.225,18,5.5,18h4C9.775,18,10,17.775,10,17.5z M9,6v11H6V6H9z"/>
	<path fill="#BEBEBE" d="M19,14.5v-6C19,8.225,18.775,8,18.5,8h-4C14.225,8,14,8.225,14,8.5v6c0,0.275,0.225,0.5,0.5,0.5h4C18.775,15,19,14.775,19,14.5z"/>
</svg>
