<?xml version="1.0" encoding="utf-8"?>
<!DOCTYPE svg PUBLIC "-//W3C//DTD SVG 1.1//EN" "http://www.w3.org/Graphics/SVG/1.1/DTD/svg11.dtd">
<svg id="vdistribute-symbolic" width="24" height="24"
	xmlns="http://www.w3.org/2000/svg" xml:space="preserve" version="1.1">
	<path opacity="0.75" fill="#BEBEBE" d="M21.5,7.999c0.275,0,0.5-0.224,0.5-0.5s-0.225-0.5-0.5-0.5h-19c-0.275,0-0.5,0.224-0.5,0.5s0.225,0.5,0.5,0.5H21.5z"/>
	<path opacity="0.75" fill="#BEBEBE" d="M5.5,16h-3C2.225,16,2,16.224,2,16.5S2.225,17,2.5,17h3V16z"/>
	<path opacity="0.75" fill="#BEBEBE" d="M17.5,17h4c0.275,0,0.5-0.224,0.5-0.5S21.775,16,21.5,16h-4V17z"/>
	<path opacity="0.35" d="M15.5,6h-6C9.224,6,9,6.225,9,6.5v4C9,10.775,9.224,11,9.5,11h6c0.275,0,0.5-0.225,0.5-0.5v-4C16,6.225,15.775,6,15.5,6z"/>
	<path opacity="0.35" d="M18.5,15h-12C6.224,15,6,15.225,6,15.5v4C6,19.775,6.224,20,6.5,20h12c0.275,0,0.5-0.225,0.5-0.5v-4C19,15.225,18.775,15,18.5,15z M7,16h11v3H7V16z"/>
	<path fill="#BEBEBE" d="M14.5,5h-6C8.224,5,8,5.225,8,5.5v4C8,9.775,8.224,10,8.5,10h6c0.275,0,0.5-0.225,0.5-0.5v-4C15,5.225,14.775,5,14.5,5z"/>
	<path fill="#BEBEBE" d="M17.5,14h-12C5.224,14,5,14.225,5,14.5v4C5,18.775,5.224,19,5.5,19h12c0.275,0,0.5-0.225,0.5-0.5v-4C18,14.225,17.775,14,17.5,14z M6,15h11v3H6V15z"/>
</svg>